…
Convert the returned object into a tidy tbl (data frame).

``` r
d <- tibble::as_tibble(sa)
```

Preview the data.

``` r
d
```

    ## # A tibble: 166 x 7
    ##       id     unit score magnitude position offset
    ##  * <int>    <chr> <dbl>     <dbl>    <int>  <int>
    ##  1     1 document   0.0       0.0       NA     NA
    ##  2     1 sentence   0.0       0.0        1      0
    ##  3     2 document   0.9       0.9       NA     NA
    ##  4     2 sentence   0.9       0.9        1      0
    ##  5     3 document   0.5       0.5       NA     NA
    ##  6     3 sentence   0.5       0.5        1      0
    ##  7     4 document   0.3       1.0       NA     NA
    ##  8     4 sentence   0.5       0.5        1      0
    ##  9     4 sentence   0.0       0.0        2     25
    ## 10     4 sentence   0.4       0.4        3     53
    ## # ... with 156 more rows, and 1 more variables: content <chr>
…
